# Put all custom GUI for missions/specific tags into this file.

### ALLCLAN ###

custom_icon = {
    name = gob_background_ui
    potential = {
    	has_reform = pentapandemonium_reform
    }
}

custom_button = {
    name = gob_1
    potential = {
		has_reform = pentapandemonium_reform
	}
	trigger = {
		hidden_trigger = {
			custom_trigger_tooltip = {
				tooltip = I98_been_5_years_tt
				OR = {
					had_country_flag = {
						flag = I98_gob1_cd_flag
						days = 1825
					}
					NOT = { has_country_flag = I98_gob1_cd_flag }
				}
			}
			OR = {
				faction_influence = {
				    faction = pen_discombobulatorium
				    influence = 40
				}
				faction_influence = {
				    faction = pen_erectors
				    influence = 40
				}
				faction_influence = {
				    faction = pen_harmaceuticals
				    influence = 40
				}
				faction_influence = {
				    faction = pen_cloak_and_swagger
				    influence = 40
				}
				faction_influence = {
				    faction = pen_clodhoppers
				    influence = 40
				}
			}
		}
	}
	effect = {
		add_pandemonium = { amount = -10 }
		if = {
			limit = {
				faction_influence = {
				    faction = pen_discombobulatorium
				    influence = 40
				}
			}
			mission_reward_artifice_points_3 = yes
			add_estate_loyalty = {
			    estate = estate_artificers
			    loyalty = -15
			}
			add_country_modifier = {
				name = I98_weaken_discom
				duration = 3650
			}
			add_faction_influence = {
				faction = pen_discombobulatorium
				influence = -10
			}
		}
		if = {
			limit = {
				faction_influence = {
				    faction = pen_erectors
				    influence = 40
				}
			}
			add_country_modifier = {
				name = I98_weaken_erectors
				duration = 3650
			}
			add_years_of_owned_provinces_production_income = {
			    years = 2
			    trigger = {
			        OR = {
			            trade_goods = iron
			            trade_goods = copper
			            trade_goods = mithril
			        }
			    }
			    custom_tooltip = I98_erector_abuse_tt
			}
			add_country_modifier = {
				name = I98_erectors_mad
				duration = 3650
			}
			add_faction_influence = {
				faction = pen_erectors
				influence = -10
			}
		}
		if = {
			limit = {
				faction_influence = {
				    faction = pen_harmaceuticals
				    influence = 40
				}
			}
			add_years_of_income = 1
			add_country_modifier = {
				name = I98_weaken_harma
				duration = 3650
			}
			add_country_modifier = {
				name = I98_harma_mad
				duration = 3650
			}
			add_faction_influence = {
				faction = pen_harmaceuticals
				influence = -10
			}
		}
		if = {
			limit = {
				faction_influence = {
				    faction = pen_cloak_and_swagger
				    influence = 40
				}
			}
			add_country_modifier = {
				name = I98_weaken_swagger
				duration = 3650
			}
			add_yearly_manpower = 3
			add_country_modifier = {
				name = I98_swagger_mad
				duration = 3650
			}
			add_faction_influence = {
				faction = pen_cloak_and_swagger
				influence = -10
			}
		}
		if = {
			limit = {
				faction_influence = {
				    faction = pen_clodhoppers
				    influence = 40
				}
			}
			add_country_modifier = {
				name = I98_weaken_clodhoppers
				duration = 3650
			}
			add_country_modifier = {
				name = I98_expensive_cav
				duration = 3650
			}
			add_faction_influence = {
				faction = pen_clodhoppers
				influence = -10
			}
		}
		hidden_effect = {
			clr_country_flag = I98_gob1_cd_flag
			set_country_flag = I98_gob1_cd_flag
		}
	}
	tooltip = I98_profiteering_tt
}

custom_button = {
    name = gob_2
    potential = {
		has_reform = pentapandemonium_reform
	}
	trigger = {
		custom_trigger_tooltip = {
			tooltip = I98_been_2_years_tt
			OR = {
				had_country_flag = {
					flag = I98_pandemonium_cd_flag
					days = 730
				}
				NOT = { has_country_flag = I98_pandemonium_cd_flag }
			}
		}
	}
	effect = {
		add_pandemonium = { amount = 10 }
		hidden_effect = {
			change_variable = {
    		    which = metachaosCount
    		    value = 1
    		}
    		country_event = {
				id = allclan.3000
			}
			clr_country_flag = I98_pandemonium_cd_flag
			set_country_flag = I98_pandemonium_cd_flag
		}
	}
	tooltip = I98_metachaos_tt
}

custom_button = {
    name = gob_3
    potential = {
		has_reform = pentapandemonium_reform
	}
	trigger = {
		custom_trigger_tooltip = {
			tooltip = I98_been_5_years_tt
			OR = {
				had_country_flag = {
					flag = I98_gob3_cd_flag
					days = 1825
				}
				NOT = { has_country_flag = I98_gob3_cd_flag }
			}
		}
		OR = {
			NOT = {
				faction_influence = {
				    faction = pen_discombobulatorium
				    influence = 10
				}
			}
			NOT = {
				faction_influence = {
				    faction = pen_erectors
				    influence = 10
				}
			}
			NOT = {
				faction_influence = {
				    faction = pen_harmaceuticals
				    influence = 10
				}
			}
			NOT = {
				faction_influence = {
				    faction = pen_cloak_and_swagger
				    influence = 10
				}
			}
			NOT = {
				faction_influence = {
				    faction = pen_clodhoppers
				    influence = 10
				}
			}
		}
	}
	effect = {
		add_pandemonium = { amount = 10 }
		if = {
			limit = {
				NOT = {
					faction_influence = {
						faction = pen_discombobulatorium
				    	influence = 10
					}
				}
			}
			change_innovativeness = -10
			add_faction_influence = {
				faction = pen_discombobulatorium
				influence = 10
			}
			add_country_modifier = {
				name = I98_strengthen_discom
				duration = 1825
			}
		}
		if = {
			limit = {
				NOT = {
					faction_influence = {
						faction = pen_harmaceuticals
				    	influence = 10
					}
				}
			}
			add_dip_power = -100
			add_faction_influence = {
				faction = pen_harmaceuticals
				influence = 10
			}
			add_country_modifier = {
				name = I98_strengthen_harma
				duration = 1825
			}
		}
		if = {
			limit = {
				NOT = {
					faction_influence = {
						faction = pen_erectors
				    	influence = 10
					}
				}
			}
			add_adm_power = -100
			add_faction_influence = {
				faction = pen_erectors
				influence = 10
			}
			add_country_modifier = {
				name = I98_strengthen_erectors
				duration = 1825
			}
		}
		if = {
			limit = {
				NOT = {
					faction_influence = {
						faction = pen_cloak_and_swagger
				    	influence = 10
					}
				}
			}
			add_mil_power = -100
			add_faction_influence = {
				faction = pen_cloak_and_swagger
				influence = 10
			}
			add_country_modifier = {
				name = I98_strengthen_swagger
				duration = 1825
			}
		}
		if = {
			limit = {
				NOT = {
					faction_influence = {
						faction = pen_clodhoppers
				    	influence = 10
					}
				}
			}
			add_prestige = -25
			add_faction_influence = {
				faction = pen_clodhoppers
				influence = 10
			}
			add_country_modifier = {
				name = I98_strengthen_clodhoppers
				duration = 1825
			}
		}
		hidden_effect = {
			clr_country_flag = I98_gob3_cd_flag
			set_country_flag = I98_gob3_cd_flag
		}
	}
	tooltip = I98_parlay_tt
}

### HARPYLEN ###

custom_icon = {
    name = harpy_queendom_ui
    potential = {
    	has_government_mechanic = harpylen_queendom_claim_mechanic
    }
	tooltip = harpy_queendom_ui_custom_tt
}

custom_icon = {
    name = harpy_queendom_bg
    potential = {
    	has_government_mechanic = harpylen_queendom_claim_mechanic
    }
}

custom_button = {
	name = harpylen_button_1
	potential = {
		has_government_mechanic = harpylen_queendom_claim_mechanic
	}
	trigger = {
		has_government_power = {
			mechanic_type = harpylen_queendom_claim_mechanic
			power_type = harpylen_queendom_power
			value = 60
		}
		hidden_trigger = { had_country_flag = { flag = harpylen_button_1_cd days = 3650 } }
	}
	effect = {
		add_government_power = {
			mechanic_type = harpylen_queendom_claim_mechanic
			power_type = harpylen_queendom_power
			value = -60
		}
		hidden_effect = {
			country_event = {
				id = harpy_events.200
			}
			change_variable = {
				which = QueendomOverallVar
				value = -60
			}
			set_country_flag = harpylen_button_1_cd
		}
	}
	tooltip = harpylen_queendom_claim_advisor_rng_tt
}
custom_button = {
	name = harpylen_button_2
	potential = {
		has_government_mechanic = harpylen_queendom_claim_mechanic
	}
	trigger = {
		has_government_power = {
			mechanic_type = harpylen_queendom_claim_mechanic
			power_type = harpylen_queendom_power
			value = 60
		}
		hidden_trigger = { had_country_flag = { flag = harpylen_button_2_cd days = 3650 } }
	}
	effect = {
		add_government_power = {
			mechanic_type = harpylen_queendom_claim_mechanic
			power_type = harpylen_queendom_power
			value = -60
		}
		hidden_effect = {
			country_event = {
				id = harpy_events.201
			}
			change_variable = {
				which = QueendomOverallVar
				value = -60
			}
			set_country_flag = harpylen_button_2_cd
		}
	}
	tooltip = harpylen_queendom_claim_march_rng_tt
}
custom_button = {
	name = harpylen_button_3
	potential = {
		has_government_mechanic = harpylen_queendom_claim_mechanic
	}
	trigger = {
		has_government_power = {
			mechanic_type = harpylen_queendom_claim_mechanic
			power_type = harpylen_queendom_power
			value = 60
		}
		hidden_trigger = { had_country_flag = { flag = harpylen_button_2_cd days = 3650 } }
	}
	effect = {
		add_government_power = {
			mechanic_type = harpylen_queendom_claim_mechanic
			power_type = harpylen_queendom_power
			value = -60
		}
		hidden_effect = {
			country_event = {
				id = harpy_events.202
			}
			change_variable = {
				which = QueendomOverallVar
				value = -60
			}
		}
	}
	tooltip = harpylen_queendom_claim_general_rng_tt
}



# Effelai Gov Mechanic
custom_icon = {
    name = effelai_government_bg
    potential = {
    	has_reform = effelai_alianaiarat_reform
    }
}

custom_button = {
	name = effelai_button_1
	potential = {
		has_reform = effelai_alianaiarat_reform
	}
	trigger = {
		custom_trigger_tooltip = {
			tooltip = effelai_need_attuned_gov_power_tt

			has_country_flag = effelai_attuned_path
		}
		custom_trigger_tooltip = {
			tooltip = effelai_has_been_40_years_tt
			OR = {
				had_country_flag = {
					flag = effelai_mechanic_1_cd_flag
					days = 14600
				}
				NOT = { has_country_flag = effelai_mechanic_1_cd_flag }
			}
		}
		if = {
			limit = {
				has_country_modifier = effelai_attunement_tier_1
			}
			has_government_power = {
				mechanic_type = anb_effelai_attuned_1
				power_type = anb_effelai_attuned_resource
				value = 200
			}
		}
		else_if = {
			limit = {
				has_country_modifier = effelai_attunement_tier_2
			}
			has_government_power = {
				mechanic_type = anb_effelai_attuned_1
				power_type = anb_effelai_attuned_resource
				value = 250
			}
		}
		else_if = {
			limit = {
				has_country_modifier = effelai_attunement_tier_3
			}
				has_government_power = {
				mechanic_type = anb_effelai_attuned_1
				power_type = anb_effelai_attuned_resource
				value = 300
			}
		}
		else_if = {
			limit = {
				has_country_modifier = effelai_attunement_tier_4
			}
			has_government_power = {
				mechanic_type = anb_effelai_attuned_1
				power_type = anb_effelai_attuned_resource
				value = 350
			}
		}
		else_if = {
			limit = {
				has_country_modifier = effelai_attunement_tier_5
			}
			has_government_power = {
				mechanic_type = anb_effelai_attuned_1
				power_type = anb_effelai_attuned_resource
				value = 400
			}
		}
	}
	effect = {
		hidden_effect = {
			set_country_flag = effelai_mechanic_1_cd_flag
		}
		if = {
			limit = {
				has_country_modifier = effelai_attunement_tier_1
			}
			custom_tooltip = effelai_intervene_militarily_mechanic_1_tt
			add_yearly_manpower = 2
			add_country_modifier = {
				name = effelai_goddess_empowers_troops_1
				duration = 7300
			}
			add_government_power = {
				mechanic_type = anb_effelai_attuned_1
				power_type = anb_effelai_attuned_resource
				value = -200
			}
		}
		else_if = {
			limit = {
				has_country_modifier = effelai_attunement_tier_2
			}
			custom_tooltip = effelai_intervene_militarily_mechanic_2_tt
			add_yearly_manpower = 2
			add_country_modifier = {
				name = effelai_goddess_empowers_troops_2
				duration = 7300
			}
			add_government_power = {
				mechanic_type = anb_effelai_attuned_1
				power_type = anb_effelai_attuned_resource
				value = -250
			}
		}
		else_if = {
			limit = {
				has_country_modifier = effelai_attunement_tier_3
			}
			custom_tooltip = effelai_intervene_militarily_mechanic_3_tt
			hidden_effect = {
				effelai_goddess_chosen_general_effect = yes
			}
			custom_tooltip = effelai_goddesses_chosen_warrior_general_tt
			add_yearly_manpower = 3
			add_country_modifier = {
				name = effelai_goddess_empowers_troops_3
				duration = 7300
			}
			add_government_power = {
				mechanic_type = anb_effelai_attuned_1
				power_type = anb_effelai_attuned_resource
				value = -300
			}
		}
		else_if = {
			limit = {
				has_country_modifier = effelai_attunement_tier_4
			}
			custom_tooltip = effelai_intervene_militarily_mechanic_4_tt
			hidden_effect = {
				effelai_goddess_chosen_general_effect = yes
			}
			custom_tooltip = effelai_goddesses_chosen_warrior_general_tt
			add_yearly_manpower = 3
			add_country_modifier = {
				name = effelai_goddess_empowers_troops_4
				duration = 7300
			}
			add_government_power = {
				mechanic_type = anb_effelai_attuned_1
				power_type = anb_effelai_attuned_resource
				value = -350
			}
		}
		else_if = {
			limit = {
				has_country_modifier = effelai_attunement_tier_5
			}
			custom_tooltip = effelai_intervene_militarily_mechanic_5_tt
			hidden_effect = {
				effelai_goddess_chosen_general_effect = yes
			}
			custom_tooltip = effelai_goddesses_chosen_warrior_general_tt
			add_yearly_manpower = 5
			add_country_modifier = {
				name = effelai_goddess_empowers_troops_5
				duration = 7300
			}
			add_government_power = {
				mechanic_type = anb_effelai_attuned_1
				power_type = anb_effelai_attuned_resource
				value = -400
			}
		}
	}
	tooltip = effelai_goddess_intervenes_militarily_button_tt
}

custom_button = {
	name = effelai_button_2
	potential = {
		has_reform = effelai_alianaiarat_reform
	}
	trigger = {
		custom_trigger_tooltip = {
			tooltip = effelai_need_attuned_gov_power_tt

			has_country_flag = effelai_attuned_path
		}
		custom_trigger_tooltip = {
			tooltip = effelai_has_been_10_years_tt
			OR = {
				had_country_flag = {
					flag = effelai_mechanic_2_cd_flag
					days = 3650
				}
				NOT = { has_country_flag = effelai_mechanic_2_cd_flag }
			}
		}
		if = {
			limit = {
				has_country_modifier = effelai_attunement_tier_1
			}
			has_government_power = {
				mechanic_type = anb_effelai_attuned_1
				power_type = anb_effelai_attuned_resource
				value = 100
			}
		}
		else_if = {
			limit = {
				has_country_modifier = effelai_attunement_tier_2
			}
			has_government_power = {
				mechanic_type = anb_effelai_attuned_1
				power_type = anb_effelai_attuned_resource
				value = 150
			}
		}
		else_if = {
			limit = {
				has_country_modifier = effelai_attunement_tier_3
			}
				has_government_power = {
				mechanic_type = anb_effelai_attuned_1
				power_type = anb_effelai_attuned_resource
				value = 200
			}
		}
		else_if = {
			limit = {
				has_country_modifier = effelai_attunement_tier_4
			}
			has_government_power = {
				mechanic_type = anb_effelai_attuned_1
				power_type = anb_effelai_attuned_resource
				value = 250
			}
		}
		else_if = {
			limit = {
				has_country_modifier = effelai_attunement_tier_5
			}
			has_government_power = {
				mechanic_type = anb_effelai_attuned_1
				power_type = anb_effelai_attuned_resource
				value = 300
			}
		}
	}
	effect = {
		hidden_effect = {
			set_country_flag = effelai_mechanic_2_cd_flag
		}
		if = {
			limit = {
				has_country_modifier = effelai_attunement_tier_1
			}
			custom_tooltip = effelai_develop_hubs_mechanic_1_tt
			tooltip = {
				add_government_power = {
					mechanic_type = anb_effelai_attuned_1
					power_type = anb_effelai_attuned_resource
					value = -100
				}
			}
		}
		else_if = {
			limit = {
				has_country_modifier = effelai_attunement_tier_2
			}
			custom_tooltip = effelai_develop_hubs_mechanic_2_tt
			tooltip = {
				add_government_power = {
					mechanic_type = anb_effelai_attuned_1
					power_type = anb_effelai_attuned_resource
					value = -150
				}
			}
		}
		else_if = {
			limit = {
				has_country_modifier = effelai_attunement_tier_3
			}
			custom_tooltip = effelai_develop_hubs_mechanic_3_tt
			tooltip = {
				add_government_power = {
					mechanic_type = anb_effelai_attuned_1
					power_type = anb_effelai_attuned_resource
					value = -200
				}
			}
		}
		else_if = {
			limit = {
				has_country_modifier = effelai_attunement_tier_4
			}
			custom_tooltip = effelai_develop_hubs_mechanic_4_tt
			tooltip = {
				add_government_power = {
					mechanic_type = anb_effelai_attuned_1
					power_type = anb_effelai_attuned_resource
					value = -250
				}
			}
		}
		else_if = {
			limit = {
				has_country_modifier = effelai_attunement_tier_5
			}
			custom_tooltip = effelai_develop_hubs_mechanic_5_tt
			tooltip = {
				add_government_power = {
					mechanic_type = anb_effelai_attuned_1
					power_type = anb_effelai_attuned_resource
					value = -300
				}
			}
		}
		hidden_effect = {
			country_event = {
				id = effelai_bloom.802
			}
		}
	}
	tooltip = effelai_goddess_empowers_hubs_button_tt
}

custom_button = {
	name = effelai_button_3
	potential = {
		has_reform = effelai_alianaiarat_reform
	}
	trigger = {
		custom_trigger_tooltip = {
			tooltip = effelai_need_attuned_gov_power_tt

			has_country_flag = effelai_attuned_path
		}
		custom_trigger_tooltip = {
			tooltip = effelai_has_been_2_years_tt
			OR = {
				had_country_flag = {
					flag = effelai_mechanic_3_cd_flag
					days = 730
				}
				NOT = { has_country_flag = effelai_mechanic_3_cd_flag }
			}
		}
		if = {
			limit = {
				has_country_modifier = effelai_attunement_tier_1
			}
			has_government_power = {
				mechanic_type = anb_effelai_attuned_1
				power_type = anb_effelai_attuned_resource
				value = 100
			}
		}
		else_if = {
			limit = {
				has_country_modifier = effelai_attunement_tier_2
			}
			has_government_power = {
				mechanic_type = anb_effelai_attuned_1
				power_type = anb_effelai_attuned_resource
				value = 150
			}
		}
		else_if = {
			limit = {
				has_country_modifier = effelai_attunement_tier_3
			}
				has_government_power = {
				mechanic_type = anb_effelai_attuned_1
				power_type = anb_effelai_attuned_resource
				value = 200
			}
		}
		else_if = {
			limit = {
				has_country_modifier = effelai_attunement_tier_4
			}
			has_government_power = {
				mechanic_type = anb_effelai_attuned_1
				power_type = anb_effelai_attuned_resource
				value = 250
			}
		}
		else_if = {
			limit = {
				has_country_modifier = effelai_attunement_tier_5
			}
			has_government_power = {
				mechanic_type = anb_effelai_attuned_1
				power_type = anb_effelai_attuned_resource
				value = 300
			}
		}
	}
	effect = {
		hidden_effect = {
			set_country_flag = effelai_mechanic_3_cd_flag
		}
		if = {
			limit = {
				has_country_modifier = effelai_attunement_tier_1
			}
			custom_tooltip = effelai_retribution_mechanic_1_tt
			add_government_power = {
				mechanic_type = anb_effelai_attuned_1
				power_type = anb_effelai_attuned_resource
				value = -100
			}
		}
		else_if = {
			limit = {
				has_country_modifier = effelai_attunement_tier_2
			}
			custom_tooltip = effelai_retribution_mechanic_2_tt
			add_government_power = {
				mechanic_type = anb_effelai_attuned_1
				power_type = anb_effelai_attuned_resource
				value = -150
			}
		}
		else_if = {
			limit = {
				has_country_modifier = effelai_attunement_tier_3
			}
			custom_tooltip = effelai_retribution_mechanic_3_tt
			add_government_power = {
				mechanic_type = anb_effelai_attuned_1
				power_type = anb_effelai_attuned_resource
				value = -200
			}
		}
		else_if = {
			limit = {
				has_country_modifier = effelai_attunement_tier_4
			}
			custom_tooltip = effelai_retribution_mechanic_4_tt
			add_government_power = {
				mechanic_type = anb_effelai_attuned_1
				power_type = anb_effelai_attuned_resource
				value = -250
			}
		}
		else_if = {
			limit = {
				has_country_modifier = effelai_attunement_tier_5
			}
			custom_tooltip = effelai_retribution_mechanic_5_tt
			add_government_power = {
				mechanic_type = anb_effelai_attuned_1
				power_type = anb_effelai_attuned_resource
				value = -300
			}
		}
		hidden_effect = {
			country_event = {
				id = effelai_bloom.801
			}
		}
	}
	tooltip = effelai_goddess_retribution_button_tt
}

custom_icon = {
    name = kalsyto_democracy_bg
    potential = {
    	has_reform = lake_bastion_of_democracy
    }
}

custom_icon = {
    name = drakonshan_bg
    potential = {
    	has_reform = drakonshani_dominion
    }
}

custom_icon = {
    name = jaddari_desert_legion_bg
    potential = {
    	has_reform = desert_legion
    }
}

custom_icon = {
    name = karakhanbar_black_hearth_bg
    potential = {
    	has_reform = karakhanbar_black_hearth_council_reform
    }
}

