# Created By: Everest
# MT Released on Steam with the 1.36 'Byzantium' (King of Kings DLC) update and 'Scions of Sarhal'

# Chien Binhrung: Girlboss Across Vimdatrong With the Power of Spirit Queens and Magic Gemstones.

chien_1 = { 
	slot = 1
	generic = no
	ai = yes 
	has_country_shield = yes
	potential = {
        OR = { 
            tag = Y72 
            was_tag = Y72
        }
    }

    Y72_hidden_gems = {
        icon = mission_dual_diplomacy
        required_missions = {
            Y72_avenge_our_queen
        }
        position = 2

        provinces_to_highlight = {
            province_id = 4740
        }

		trigger = {
			OR = {
                AND = {
                    treasury = 100
                    4740 = {
                        OR = {
                            owner = {
                                has_spy_network_from = {
                                    who = ROOT
                                    value = 50
                                }
                            }
                        }
                    }
                }
                owns = 4740 #Backup Plan in case you ball too hard
			}
        }

        effect = {
            custom_tooltip = Y72_hidden_gems_effect_1_tt
            hidden_effect = {
                if = {
                    limit = {
                        NOT = { owns = 4740 }
                    }
                    4740 = {
                        owner = {
                            add_spy_network_from = {
                                who = Y72
                                value = -50
                            }
                        }
                    }
                    Y72 = {
                        add_treasury = -100
                    }
                }
            }
            add_country_modifier = {
                name = Y72_brave_the_sands
                duration = 5475
            }  
            gehamteg_area = {
                discover_country = ROOT
            }
            tlagukit_area = {
                discover_country = ROOT
            }             
            sirtan_area = {
				limit = {
					NOT = { is_core = ROOT }
					NOT = { is_permanent_claim = ROOT }
				}
				add_permanent_claim = ROOT
			}  
            loratana_area = {
				limit = {
					NOT = { is_core = ROOT }
					NOT = { is_permanent_claim = ROOT }
				}
				add_permanent_claim = ROOT
			} 
            custom_tooltip = Y72_hidden_gems_effect_2_tt             
        }
    }

    Y72_curio_expedition = {
        icon = mission_forest_pilgrim
        required_missions = {
            Y72_hidden_gems
        }
        position = 3

        provinces_to_highlight = {
            OR = {
                AND = {
                    area = thuongidut_area
                    NOT = { has_manpower_building_trigger = yes }
                }
            }
        }

        trigger = {
            manpower = 5
            thuongidut_area = {
                type = all
                owned_by = ROOT
                has_manpower_building_trigger = yes
            }
		}

        effect = {
            add_manpower = -5
            create_general = { tradition = 50 }
            custom_tooltip = Y72_curio_expedition_effect_tt
            hidden_effect = {
                brenulan_area = {
                    discover_country = ROOT
                }
                non_chien_area = {
                    discover_country = ROOT
                }
                4772 = {
                    discover_country = ROOT
                }
                4732 = {
                    discover_country = ROOT
                }
            }
            4772 = {
                if = {
				    limit = {
					    NOT = { is_core = ROOT }
					    NOT = { is_permanent_claim = ROOT }
				    }
                }
				add_permanent_claim = ROOT
			}
            4956 = {
                if = {
				    limit = {
					    NOT = { is_core = ROOT }
					    NOT = { is_permanent_claim = ROOT }
				    }
                }
				add_permanent_claim = ROOT
            }
            4730 = {
                if = {
				    limit = {
					    NOT = { is_core = ROOT }
					    NOT = { is_permanent_claim = ROOT }
				    }
                }
				add_permanent_claim = ROOT
            }
            4736 = {
                if = {
				    limit = {
					    NOT = { is_core = ROOT }
					    NOT = { is_permanent_claim = ROOT }
				    }
                }
				add_permanent_claim = ROOT
            }
        }
    }

    Y72_military_expedition = {
        icon = mission_mnd_dai_control_the_army
        required_missions = {
            Y72_curio_expedition
        }
        position = 4

        provinces_to_highlight = {
            OR = {
                AND = {
                    region = lupulan_rainforest_region
                    NOT = { is_core = ROOT }
                }
            }
        }

		trigger = {
			num_of_provinces_owned_or_owned_by_non_sovereign_subjects_with = {
				region = lupulan_rainforest_region
				value = 20
            }
        }

        effect = {
            lupulan_rainforest_region = {
				limit = {
					NOT = { is_core = ROOT }
					NOT = { is_permanent_claim = ROOT }
				}
				add_permanent_claim = ROOT
			}
            hidden_effect = { #Might change this to having a spymaster instead
                if = {
                    limit = {
                        mission_completed = Y72_meeting_with_knives
                    }
                    add_country_modifier = {
                        name = Y72_deal_with_dissenters
                        duration = 5475
                    }
                }
            }
            custom_tooltip = Y72_military_expedition_effect_tt            
        }
    }

    Y72_offer_amongst_forest = {
        icon = mission_riches_of_golconda
        required_missions = {
            Y72_military_expedition
        }
        position = 6

        provinces_to_highlight = {
            province_id = 4957
        }

        trigger = {
            owns_core_province = 4957 #Buldakala
            4957 = {
                has_ruler_leader_from = ROOT #Maybe add a custom tooltip here for clarity
            }
            if = {
				limit = { 
                    has_estate = estate_church
                }
                NOT = {
                    estate_influence = {
                        estate = estate_church
                        influence = 40
                    }
                }
            }
            if = {
                limit = {
                    NOT = {
                        has_estate = estate_church
                    }
                }
                has_adm_advisor_3 = yes
            }
		}

        effect = {
            country_event = { id = flavor_chien.5 } #Not a Plea, Nor a Demand (Choose your Religion Event)
            custom_tooltip = Y72_offer_amongst_forest_tt
        }
    }
}

chien_1_question = { #None of these missions should be possible to complete.
	slot = 1
	generic = no
	ai = yes 
	has_country_shield = yes
	potential = { 
        OR = { 
            tag = Y72 
            was_tag = Y72
        }
        NOT = { has_country_flag = chien_righteous_path }
        NOT = { has_country_flag = chien_mystic_accord }
    }

    Y72_hidden_1 = { 
        icon = mission_unknown_mission
        required_missions = {
            Y72_offer_amongst_forest
        }
        position = 8
        trigger = {
            custom_trigger_tooltip = {
	            tooltip = Y72_hidden_tt
	            has_country_flag = chien_impossible
            }
		}

        effect = {
        }
    }

    Y72_hidden_2 = {
        icon = mission_unknown_mission
        required_missions = {
            Y72_hidden_1
        }
        position = 10
        trigger = { #Custom Tooltip explaining what the branch is.  Have for all three branching missions
            custom_trigger_tooltip = {
	            tooltip = Y72_hidden_tt
	            has_country_flag = chien_impossible
            }
		}

        effect = {
        }
    }
    
    Y72_hidden_3 = {
        icon = mission_unknown_mission
        required_missions = {
            Y72_hidden_2
        }
        position = 11
        trigger = { #Custom Tooltip explaining what the branch is.  Have for all three branching missions
            custom_trigger_tooltip = {
	            tooltip = Y72_hidden_tt
	            has_country_flag = chien_impossible
            }
		}

        effect = {
        }
    }
}

chien_1_rp = { 
	slot = 1
	generic = no
	ai = yes 
	has_country_shield = yes
	potential = { 
        OR = { 
            tag = Y72 
            was_tag = Y72
        }
        has_country_flag = chien_righteous_path
    }

    Y72_tradition_power = {
        icon = mission_women_prayer
        required_missions = {
            Y72_offer_amongst_forest
        }
        position = 8

        trigger = {
            church_power = 200
            has_church_aspect = remembrance_festivals
            OR = {
                has_adm_advisor_3 = yes
                employed_advisor = { type = theologian }
            }
		}

        effect = { ##This was a pain in the ass to find
            add_church_power = -200
            custom_tooltip = Y72_tradition_power_effect_tt   
            hidden_effect = {
                set_country_flag = Y72_improve_development_on_buildings_built
            }            
        }
    }

    Y72_matter_chi = {
        icon = mission_scholar_officials
        required_missions = {
            Y72_tradition_power
        }
        position = 10

        provinces_to_highlight = {
            province_id = 4957
        }

        trigger = {
            4957 = {
                has_building = mage_tower
            }
            if = {
                limit = {
                    has_estate = estate_church
                }
                num_of_estate_agendas_completed = {
                    estate = estate_church 
                    value = 8
                }
            }
            if = {
                limit = {
                    NOT = {
                        has_estate = estate_church
                    }           
                }
                num_of_owned_provinces_with = {
                    value = 20
                    has_tax_building_trigger = yes
                }
            }           
		}
        effect = {
            Y72_upgrade_spirit_queens = yes
            remove_country_modifier = Y72_common_interest
            add_country_modifier = {
                name = Y72_syncretic_beliefs
                duration = -1
            }
        }
    }
    
    Y72_oppressors_servants = {
        icon = mission_monarch_diplomacy
        required_missions = {
            Y72_matter_chi
        }
        position = 11

        trigger = {
            religious_unity = 1
            stability = 3
            reform_level = 4
		}

        effect = {
            add_government_reform = chien_planar_equality_reform
            add_country_modifier = {
                name = Y72_spirits_appeased
                duration = 9125
            } 
            custom_tooltip = Y72_make_temple_derelict
            hidden_effect = {
                4955 = {
                    if = {
                        limit = { has_province_modifier = temple_complex }
                        remove_province_modifier = temple_complex
                        add_permanent_province_modifier = {
                            name = derelict_temple_complex
                            duration = -1
                        }
                        downgrade_temple_wards = yes
                    }
                    else_if = {
                        limit = { has_province_modifier = damaged_temple_complex }
                        remove_province_modifier = damaged_temple_complex
                        add_permanent_province_modifier = {
                            name = derelict_temple_complex
                            duration = -1
                        }
                        downgrade_temple_wards = yes
                    }
                }  
            }         
        }
    }
}

chien_1_ma = { 
	slot = 1
	generic = no
	ai = yes 
	has_country_shield = yes
	potential = { 
        OR = { 
            tag = Y72 
            was_tag = Y72
        }
        has_country_flag = chien_mystic_accord
    }

    Y72_learn_from_locals = {
        icon = mission_patronize_local_gods
        required_missions = {
            Y72_offer_amongst_forest
        }
        position = 8

        provinces_to_highlight = {
            region = lupulan_rainforest_region
            OR = {
                AND = {   
                    owned_by = ROOT     
                    NOT = { religion = mystic_accord }                  
                }
                AND = {
                    owned_by = ROOT
                    NOT = { has_tax_building_trigger = yes } 
                }
            }
        }

        trigger = {
            num_of_owned_provinces_with = {
                value = 15
                region = lupulan_rainforest_region
                religion = mystic_accord
                has_tax_building_trigger = yes
            }
		}

        effect = {
            add_country_modifier = {
                name = Y72_old_teachings
                duration = -1
            }
        }
    }

    Y72_queens_decree = {
        icon = mission_reign_of_women
        required_missions = {
            Y72_learn_from_locals
        }
        position = 10

        trigger = {
            stability = 2
            legitimacy = 90
            if = {
                limit = {
                    has_estate = estate_church
                }
                has_estate_privilege = estate_church_one_faith_one_culture
            }
            if = {
                limit = {
                    NOT = { 
                        has_estate = estate_church
                    }
                }
                NOT = {
                    average_unrest = 1
                }
            }
		}

        effect = {
            Y72_upgrade_spirit_queens = yes
            add_country_modifier = {
                name = Y72_spread_word
                duration = 10950
            }
        }
    }
    
    Y72_temple_throne = { #Quick note, if the temple monument does get added, I want to add a reward that upgrades it for free if it's tier 0, only the cost of 1000 if it's tier 1, and the cost of 2500 if it's tier 2
        icon = mission_rb_take_indian_coast
        required_missions = {
            Y72_queens_decree
        }
        position = 11

        trigger = {
            religious_unity = 1
            treasury = 1000
            adm_power = 100
            dip_power = 100
            mil_power = 100
		}

        effect = {
            add_treasury = -1000
            add_adm_power = -100
            add_dip_power = -100
            add_mil_power = -100
            add_country_modifier = {
                name = Y72_nha_nuhoanhu_palace
                duration = -1
            }
            add_country_modifier = {
                name = Y72_spirits_appeased
                duration = 9125
            }
            custom_tooltip = Y72_make_temple_derelict
            hidden_effect = {
                4955 = {
                    if = {
                        limit = { has_province_modifier = temple_complex }
                        remove_province_modifier = temple_complex
                        add_permanent_province_modifier = {
                            name = derelict_temple_complex
                            duration = -1
                        }
                        downgrade_temple_wards = yes
                    }
                    else_if = {
                        limit = { has_province_modifier = damaged_temple_complex }
                        remove_province_modifier = damaged_temple_complex
                        add_permanent_province_modifier = {
                            name = derelict_temple_complex
                            duration = -1
                        }
                        downgrade_temple_wards = yes
                    }
                }  
            }
        }
    }
}

chien_2 = { 
	slot = 2
	generic = no
	ai = yes 
	has_country_shield = yes
	potential = { 
        OR = { 
            tag = Y72 
            was_tag = Y72
        }
    }

    Y72_sharpen_boars_tusks = {
        icon = mission_recruit_streltsy
        required_missions = {
            Y72_avenge_our_queen
        }
        position = 2

        trigger = {
            has_global_modifier_value = {
				which = discipline
				value = 0.10
			}
            army_size = 40
		}

        effect = {
            unlock_merc_company = {
				merc_company = merc_chien_boarsofdinh
				free_merc = yes
			}
        }
    }

    Y72_end_raiders = {
        icon = mission_invade_maharashtra
        required_missions = {
            Y72_hidden_gems
        }
        position = 3

        provinces_to_highlight = {
            OR = {
                AND = {
                    area = sirtan_area
                    NOT = { is_core = ROOT }
                }
                AND = {
                    area = loratana_area 
                    NOT = { is_core = ROOT }
                }
            }
        }

        trigger = {
			sirtan_area = {
                type = all
                is_core = ROOT
                NOT = { local_autonomy = 20}                
			}
            loratana_area = {
                type = all
                is_core = ROOT
                NOT = { local_autonomy = 20 }
            }           
		}

        effect = {
            add_country_modifier = {
                name = Y72_gateway_to_forest
                duration = -1
            }
            lupulan_rainforest_region = {
                discover_country = ROOT
            }
            gehamteg_area = {
				limit = {
					NOT = { is_core = ROOT }
					NOT = { is_permanent_claim = ROOT }
				}
				add_permanent_claim = ROOT
			}
            tlagukit_area = {
				limit = {
					NOT = { is_core = ROOT }
					NOT = { is_permanent_claim = ROOT }
				}
				add_permanent_claim = ROOT
			}            
        }
    }

    Y72_drive_elf_lovers_out = {
        icon = mission_mounted_battle
        required_missions = { 
            Y72_military_expedition
            Y72_end_raiders
        }
        position = 5

        provinces_to_highlight = {
            OR = {
                AND = {
                    area = thuongidut_area
                    area = non_chien_area
                    area = mesatulek_area
                    area = brenulan_area
                    area = gehamteg_area
                    area = gobusoa_area
                    area = agluwadai_area
                    area = tlagukit_area
                    area = sawuladan_area
                    area = hoangdesinh_area
                    area = amkamsek_area
                    area = harumbasai_area
                    area = rewirang_area
                    owned_by = Y65
                }
                AND = {
                    area = gobusoa_area
                    NOT = { is_core = ROOT }
                }
                AND = {
                    area = agluwadai_area
                    NOT = { is_core = ROOT }
                }
            }
        }

        trigger = {
            custom_trigger_tooltip = {
                tooltip = Y72_drive_elf_trigger_tt
                thuongidut_area = {
                    NOT = { owned_by = Y65 }
                }
                mesatulek_area = {
                    NOT = { owned_by = Y65 }
                }
                non_chien_area = {
                    NOT = { owned_by = Y65 }
                }
                brenulan_area = {
                    NOT = { owned_by = Y65 }
                }
                gehamteg_area = {
                    NOT = { owned_by = Y65 }
                }
                gobusoa_area = {
                    NOT = { owned_by = Y65 }
                }
                agluwadai_area = {
                    NOT = { owned_by = Y65 }
                }
                tlagukit_area = {
                    NOT = { owned_by = Y65 }
                }
                sawuladan_area = {
                    NOT = { owned_by = Y65 }
                }
                hoangdesinh_area = {
                    NOT = { owned_by = Y65 }
                }
                amkamsek_area = {
                    NOT = { owned_by = Y65 }
                }
                harumbasai_area = {
                    NOT = { owned_by = Y65 }
                }
                rewirang_area = {
                    NOT = { owned_by = Y65 }
                }
            }

            gobusoa_area = {
                type = all
                is_core = ROOT
            }

            agluwadai_area = {
                type = all
                is_core = ROOT
            }
		}

        effect = {
            add_country_modifier = {
                name = Y72_queen_rainforest
                duration = 10950
            }
        }
    }

    Y72_help_from_beyond = {
        icon = mission_empowerment
        required_missions = {
            Y72_offer_amongst_forest
            Y72_drive_elf_lovers_out
        }
        position = 7

        provinces_to_highlight = {
            OR = {
                AND = {
                    OR = {
                        area = thuongidut_area
                        area = non_chien_area
                        area = brenulan_area
                        area = gehamteg_area
                    }
                    NOT = {
                        AND = {
                            owned_by = ROOT
                            development = 10 
                            has_tax_building_trigger = yes 
                        }
                    }
                }
            }   
        }

        trigger = {
            thuongidut_area = {
                type = all
                is_core = ROOT
                development = 10
                has_tax_building_trigger = yes
            }

            non_chien_area = {
                type = all
                is_core = ROOT
                development = 10
                has_tax_building_trigger = yes
            }

            brenulan_area = {
                type = all
                is_core = ROOT
                development = 10
                has_tax_building_trigger = yes
            }

            gehamteg_area = {
                type = all
                is_core = ROOT
                development = 10
                has_tax_building_trigger = yes
            }
		}

        effect = {
            add_country_modifier = {
                name = Y72_spirit_aid
                duration = 10950
            }
        }
    }

    Y72_seize_coastline = {
        icon = mng_tame_china_sorrow
        required_missions = {
            Y72_help_from_beyond
        }
        position = 9

        provinces_to_highlight = {
            OR = {
                AND = {
                    area = hoangdesinh_area
                    NOT = { country_or_non_sovereign_subject_holds = ROOT }
                }
                AND = {
                    area = harumbasai_area
                    NOT = { country_or_non_sovereign_subject_holds = ROOT }
                }
                AND = {
                    area = arawkelin_area
                    NOT = { country_or_non_sovereign_subject_holds = ROOT }
                }
                AND = {
                    area = lembiahar_area
                    NOT = { country_or_non_sovereign_subject_holds = ROOT }
                }
                AND = {
                    area = pingurnsai_area
                    NOT = { country_or_non_sovereign_subject_holds = ROOT }
                }
            }
        }

        trigger = {
            hoangdesinh_area = {
				type = all
				country_or_non_sovereign_subject_holds = ROOT
            }

            harumbasai_area = {
				type = all
				country_or_non_sovereign_subject_holds = ROOT
            }

            arawkelin_area = {
				type = all
				country_or_non_sovereign_subject_holds = ROOT
            }

            lembiahar_area = {
				type = all
				country_or_non_sovereign_subject_holds = ROOT
            }

            pingurnsai_area = {
				type = all
				country_or_non_sovereign_subject_holds = ROOT
            }
		}

        effect = {
            add_country_modifier = {
                name = Y72_cultural_union
                duration = -1
            }
        }
    }

    Y72_reconnect_heritage = {
        icon = mission_mnd_maj_prepare_eastern_campaigns
        required_missions = {
            Y72_seize_coastline
        }
        position = 11

        provinces_to_highlight = {              
            region = lupulan_rainforest_region
            OR = {
                AND = {
                    NOT = { country_or_non_sovereign_subject_holds = ROOT }
                    NOT = { province_id = 4805 }
                    NOT = { province_id = 3246 }
                }
                AND = {
                    country_or_non_sovereign_subject_holds = ROOT
                    nationalism = 1
                }
            }      
        }

        trigger = {
            custom_trigger_tooltip = {
                tooltip = Y72_reconnect_heritage_trigger_tt
                OR = {
                    mystic_accord = 3
                    lupulan_rainforest_region = {
                        type = ALL
                        OR = {
                            province_id = 4805   
                            province_id = 3246 
                            has_owner_religion = yes
                        }
                    }
                }
            }
            custom_trigger_tooltip = {
                tooltip = Y72_reconnect_heritage_trigger_2_tt
                lupulan_rainforest_region = { 
                    type = ALL
                    OR = {
                        AND = {
                            country_or_non_sovereign_subject_holds = ROOT
                            NOT = { nationalism = 1 }
                        }
                        province_id = 4805
                        province_id = 3246  
                    }
                }
            }
            num_of_owned_provinces_with = {
                region = lupulan_rainforest_region
                value = 15
                has_manufactory_trigger = yes
            }
		}

        effect = {
            non_chien_area = {
                change_culture = binhrung
            }
            custom_tooltip = Y72_reconnect_heritage_effect_tt
            hidden_effect = {
				lupulan_rainforest_region = {
					limit = {
						has_manufactory_trigger = yes
					}
					add_base_production = 2
				}
			}            
            bedaphire_area = {
				limit = {
					NOT = { is_core = ROOT }
					NOT = { is_permanent_claim = ROOT }
				}
				add_permanent_claim = ROOT
			}
            irkan_eparta_area = {
				limit = {
					NOT = { is_core = ROOT }
					NOT = { is_permanent_claim = ROOT }
				}
				add_permanent_claim = ROOT
			}
        }
    }
}

chien_3 = { 
	slot = 3
	generic = no
	ai = yes 
	has_country_shield = yes
	potential = { 
        OR = { 
            tag = Y72 
            was_tag = Y72
        }
    }

    Y72_avenge_our_queen = {
        icon = mission_heated_battle
        position = 1

        provinces_to_highlight = {
            OR = {
                province_id = 4749
                province_id = 4750
                province_id = 4751
                province_id = 4752
                province_id = 4753
                province_id = 4944
            }
        }

        trigger = {
            if = {
                limit = {
                    NOT = { has_country_flag = chien_lost }
                }
                custom_trigger_tooltip = {
                    tooltip = Y72_ending_blood_feud_tt
                    has_country_flag = chien_won
                }
            }
            else = {
                4749 = { owned_by = ROOT }
                4750 = { owned_by = ROOT } 
                4751 = { owned_by = ROOT } 
                4752 = { owned_by = ROOT } 
                4753 = { owned_by = ROOT }
                4944 = { owned_by = ROOT }
            }
		}

        effect = {
            country_event = { id = flavor_chien.1 }
            ngaopho_area = {
				limit = {
					NOT = { is_core = ROOT }
					NOT = { is_permanent_claim = ROOT }
				}
				add_permanent_claim = ROOT
			}
            kasainam_area = {
				limit = {
					NOT = { is_core = ROOT }
					NOT = { is_permanent_claim = ROOT }
				}
				add_permanent_claim = ROOT
			}
        }
    }

    Y72_unite_old_kingdom = {
        icon = mission_door_trade
        required_missions = {
            Y72_avenge_our_queen
        }
        position = 3

        provinces_to_highlight = {
            OR = {
                AND = {
                    area = ngaopho_area
                    NOT = { is_core = ROOT }
                }
                AND = {
                    area = kasainam_area
                    NOT = { is_core = ROOT }
                }
                AND = {
                    area = yemakaibo_area
                    NOT = { is_core = ROOT }
                }
            }
        }

        trigger = {
            ngaopho_area = {
                type = all
                is_core = ROOT
            }

            kasainam_area = {
                type = all
                is_core = ROOT
            }

            yemakaibo_area = {
                type = all
                is_core = ROOT
            }
		}

        effect = {
            add_prestige = 15
            anb_add_accepted_culture_or_dip_power = {
				culture = bokai
                dip_reward = yes
			}

            phaktai_area = {
				limit = {
					NOT = { is_core = ROOT }
					NOT = { is_permanent_claim = ROOT }
				}
				add_permanent_claim = ROOT
			}
            hinphat_area = {
				limit = {
					NOT = { is_core = ROOT }
					NOT = { is_permanent_claim = ROOT }
				}
				add_permanent_claim = ROOT
			}
            4942 = {
				add_permanent_claim = ROOT
			}
        }
    }

    Y72_mountain_kings_servants = {
        icon = mission_pue_restore_mesa_verde
        required_missions = {
            Y72_unite_old_kingdom
        }
        position = 5

        provinces_to_highlight = {
            OR = {
                AND = {
                    area = phaktai_area
                    NOT = { country_or_non_sovereign_subject_holds = ROOT }
                }
                AND = {
                    area = hinphat_area
                    NOT = { country_or_non_sovereign_subject_holds = ROOT }
                }
                AND = {
                    province_id = 4942
                    NOT = { country_or_non_sovereign_subject_holds = ROOT }
                }
            } 
        }

        trigger = {
            phaktai_area = {
                type = all
                country_or_non_sovereign_subject_holds = ROOT
            }
            hinphat_area = {
                type = all
                country_or_non_sovereign_subject_holds = ROOT
            }
            4942 = { country_or_non_sovereign_subject_holds = ROOT }
		}

        effect = {
            country_event = { id = flavor_chien.2 }           
            phonan_area = {
				limit = {
					NOT = { is_core = ROOT }
					NOT = { is_permanent_claim = ROOT }
				}
				add_permanent_claim = ROOT
			}

            ananhu_area = {
				limit = {
					NOT = { is_core = ROOT }
					NOT = { is_permanent_claim = ROOT }
				}
				add_permanent_claim = ROOT
			}

            nui_phom_area = {
				limit = {
					NOT = { is_core = ROOT }
					NOT = { is_permanent_claim = ROOT }
				}
				add_permanent_claim = ROOT
			}

            khom_ma_area = {
				limit = {
					NOT = { is_core = ROOT }
					NOT = { is_permanent_claim = ROOT }
				}
				add_permanent_claim = ROOT
			}
            hidden_effect = {
                if = {
                    limit = {
                        exists = Y66
                        NOT = {
                            Y66 = {
                                total_development = 180
                            }
                        }
                    }
                    add_casus_belli = {
                        target = Y66
                        type = cb_restore_personal_union
                        months = 300
                    }
                }
                if = {
                    limit = {
                        exists = Y97
                        NOT = {
                            Y97 = {
                                total_development = 180
                            }
                        }
                    }
                    add_casus_belli = {
                        target = Y97
                        type = cb_restore_personal_union
                        months = 300
                    }
                }
            }        
            custom_tooltip = Y72_mountain_kings_effect_tt   
        }
    }

    Y72_laid_to_rest = {
        icon = mission_burning_castle
        required_missions = {
            Y72_mountain_kings_servants
        }
        position = 6

        provinces_to_highlight = {
            OR = {
                AND = {
                    area = phonan_area
                    NOT = { country_or_non_sovereign_subject_holds = ROOT }
                }
                AND = {
                    area = ananhu_area
                    NOT = { country_or_non_sovereign_subject_holds = ROOT }
                }
                AND = {
                    area = nui_phom_area
                    NOT = { country_or_non_sovereign_subject_holds = ROOT }
                }
                AND = {
                    area = khom_ma_area
                    NOT = { country_or_non_sovereign_subject_holds = ROOT }
                }
            }
        }

        trigger = {
            phonan_area = {
				type = all
				country_or_non_sovereign_subject_holds = ROOT
            }
            ananhu_area = {
				type = all
				country_or_non_sovereign_subject_holds = ROOT
            }
            nui_phom_area = {
				type = all
				country_or_non_sovereign_subject_holds = ROOT
            }
            khom_ma_area = {
				type = all
				country_or_non_sovereign_subject_holds = ROOT
            }
            OR = {
                NOT = { exists = Y66 } #Hon Sai
                Y66 = { is_subject_of = ROOT }
            }
            OR = {
                NOT = { exists = Y97 } #Bahion Xinh
                Y97 = { is_subject_of = ROOT }
            }
		}

        effect = {
            Y72_upgrade_spirit_queens = yes
            country_event = { id = flavor_chien.3 }
            4777 = {
				add_permanent_claim = ROOT
			}
            4940 = {
				add_permanent_claim = ROOT
			}
            4781 = {
				add_permanent_claim = ROOT
			}
            thirabnir_area = {
				limit = {
					NOT = { is_core = ROOT }
					NOT = { is_permanent_claim = ROOT }
				}
				add_permanent_claim = ROOT
			}
            phakphon_area = {
				limit = {
					NOT = { is_core = ROOT }
					NOT = { is_permanent_claim = ROOT }
				}
				add_permanent_claim = ROOT
			}
            kaiden_area = {
				limit = {
					NOT = { is_core = ROOT }
					NOT = { is_permanent_claim = ROOT }
				}
				add_permanent_claim = ROOT
			}
            hidden_effect = {
                if = {
                    limit = {
                        OR = {
                            Y66 = {
                                is_subject_of_type_with_overlord = { 
                                    who = Y72
                                    type = personal_union
                                }
                            }
                            Y66 = {
                                is_subject_of_type_with_overlord = { 
                                    who = Z63
                                    type = personal_union
                                }
                            }
                            Y66 = {
                                is_subject_of_type_with_overlord = { 
                                    who = Z63
                                    type = personal_union
                                }
                            }
                            Y66 = {
                                is_subject_of_type_with_overlord = { 
                                    who = Z63
                                    type = personal_union
                                }
                            }
                        }
                    }
                    set_country_flag = Y72_honsai_pu
                }
            }
        }
    }

    Y72_rein_in_townships = {
        icon = mission_asian_city
        required_missions = {
            Y72_laid_to_rest
        }
        position = 8

        provinces_to_highlight = {
            OR = {
                province_id = 4777
				province_id = 4940
				province_id = 4781
                area = thirabnir_area
                area = phakphon_area
                area = kaiden_area
            }
            NOT = { country_or_non_sovereign_subject_holds = ROOT }
        }

        trigger = {
            4777 = {
				country_or_non_sovereign_subject_holds = ROOT
            }
            4940 = {
				country_or_non_sovereign_subject_holds = ROOT
            }
            4781 = {
				country_or_non_sovereign_subject_holds = ROOT
            }
            thirabnir_area = {
				type = all
				country_or_non_sovereign_subject_holds = ROOT
            }
            phakphon_area = {
				type = all
				country_or_non_sovereign_subject_holds = ROOT
            }
            kaiden_area = {
				type = all
				country_or_non_sovereign_subject_holds = ROOT
            }
		}

        effect = {
            anb_add_accepted_culture_or_dip_power = {
				culture = sikai
                dip_reward = yes
			}
            4789 = {
                add_base_tax = 2
            }
            4788 = {
                add_base_tax = 2
            }
            4778 = {
                add_base_tax = 2
            }
            4777 = {
                add_base_tax = 2
            }
            hidden_effect = {
                thidinkai_region = {
					limit = {
                        OR = {
						    culture = sikai
                            culture = hinphat
                            culture = binhrung
                            culture = bokai
                            culture = phonan
                            culture = khom
                        }
						NOT = { is_core = ROOT }
						NOT = { is_permanent_claim = ROOT }
					}
					add_permanent_claim = ROOT
				}
                lupulan_rainforest_region = {
					limit = {
                        OR = {
						    culture = sikai
                            culture = hinphat
                            culture = binhrung
                            culture = bokai
                            culture = phonan
                            culture = khom
                        }
						NOT = { is_core = ROOT }
						NOT = { is_permanent_claim = ROOT }
					}
					add_permanent_claim = ROOT
				}
                xianjie_region = {
					limit = {
                        OR = {
						    culture = sikai
                            culture = hinphat
                            culture = binhrung
                            culture = bokai
                            culture = phonan
                            culture = khom
                        }
						NOT = { is_core = ROOT }
						NOT = { is_permanent_claim = ROOT }
					}
					add_permanent_claim = ROOT
				}
                lower_yanshen_region = {
					limit = {
                        OR = {
						    culture = sikai
                            culture = hinphat
                            culture = binhrung
                            culture = bokai
                            culture = phonan
                            culture = khom
                        }
						NOT = { is_core = ROOT }
						NOT = { is_permanent_claim = ROOT }
					}
					add_permanent_claim = ROOT
				}
            }
            custom_tooltip = Y72_rein_in_townships_effect_tt
        }
    }

    Y72_rulers_yanglam_kai = {
        icon = mission_unite_home_region
        required_missions = {
            Y72_rein_in_townships
            Y72_seize_coastline
        }
        position = 10

        provinces_to_highlight = {
            continent = asia
            OR = {
                culture_group = yanglam
                culture_group = kai
            }
            NOT = { country_or_non_sovereign_subject_holds = ROOT }
        }

        trigger = {
            custom_trigger_tooltip = {
                tooltip = Y72_rulers_yanglam_kai_trigger_1_tt
                has_country_flag = formed_thidinkai_flag
            }
            custom_trigger_tooltip = {
                tooltip = Y72_rulers_yanglam_kai_trigger_2_tt
                asia = { #You must own all provinces in Yanglam/Kai Culture Groups
                    type = all
                    OR = {
                        AND = {
                            NOT = { culture_group = kai }
                            NOT = { culture_group = yanglam }
                        }
                        country_or_non_sovereign_subject_holds = ROOT
                    }
                }
            }
		}

        effect = {
            add_power_projection = { 
                type = 10_permanent_power_projection
                amount = 10
            }
            custom_tooltip = Y72_perm_pp_effect_tt
            hungngon_area = {
				limit = {
					NOT = { is_core = ROOT }
					NOT = { is_permanent_claim = ROOT }
				}
				add_permanent_claim = ROOT
			}
            wanglam_area = {
				limit = {
					NOT = { is_core = ROOT }
					NOT = { is_permanent_claim = ROOT }
				}
				add_permanent_claim = ROOT
			}
            jyutsai_area = {
				limit = {
					NOT = { is_core = ROOT }
					NOT = { is_permanent_claim = ROOT }
				}
				add_permanent_claim = ROOT
			}
        }
    }

    Y72_reforged_crown = {
        icon = mission_crown_of_denmark
        required_missions = {
            Y72_reconnect_heritage
            Y72_rulers_yanglam_kai
            Y72_heirs_thindikai
        }
        position = 12

        trigger = {
            custom_trigger_tooltip = {
                tooltip = Y72_reforged_crown_trigger_tt
                AND = {
                    has_country_flag = nhitrac_unlocked
                    has_country_flag = duyen_unlocked
                }
            }
            production_leader = {
                trade_goods = gems
            }
            NOT = { great_power_rank = 4 }
		}

        effect = {
            country_event = { id = flavor_chien.10 }
            custom_tooltip = Y72_reforged_crown_effect_tt
            hidden_effect = {
                set_country_flag = halve_economic_hegemony_requirements
            }
        }
    }
}

chien_4 = { 
	slot = 4
	generic = no
	ai = yes 
	has_country_shield = yes
	potential = { 
        OR = { 
            tag = Y72 
            was_tag = Y72
        }
    }

    Y72_reopen_gem_caves = {
        icon = mission_sw_torquoise_mining
        required_missions = {
            Y72_avenge_our_queen
        } 
        position = 2

        provinces_to_highlight = {
            province_id = 4955
        }

        trigger = {
            4955 = {
                base_production = 10
                NOT = { devastation = 1 }
            }
		}

        effect = {
            generate_scaled_advisor_of_type_and_cost_effect = {
                type = natural_scientist
                cost_multiplier = 0.5
            }
            country_event = { id = flavor_chien.4 days = 90 }
            custom_tooltip = Y72_reopen_caves_effect_tt           
        }
    }

    Y72_eyes_open_trade = {
        icon = mission_guarded_market
        required_missions = {
            Y72_reopen_gem_caves
        }
        position = 3

        provinces_to_highlight = {
            OR = {
                AND = {
                    OR = {
                        province_id = 4955
                        province_id = 4731
                        province_id = 4751
                    }
                    NOT = {
                        AND = {
                            renaissance = 100
                            province_has_center_of_trade_of_level = 2
                            infantry_in_province = 3
                        }
                    }
                }
            }
        }

        trigger = {
            4955 = { #Keoaden
                renaissance = 100
                province_has_center_of_trade_of_level = 2
                infantry_in_province = 3
            }
            4731 = { #Kaisanthi
                renaissance = 100
                province_has_center_of_trade_of_level = 2
                infantry_in_province = 3                
            }
            4751 = { #Nirakvonkai
                renaissance = 100
                province_has_center_of_trade_of_level = 2
                infantry_in_province = 3
            }
		}

        effect = {
            4955 = { #Keoaden
                kill_units = {
                    who = ROOT
                    type = infantry
                    amount = 3
                }
                if = {
                    limit = { has_trade_building_trigger = yes }
                    upgrade_building = { trade = yes } 
                }
                else = {
                    add_building_construction = {
                        building = marketplace
                        speed = 0.5
                        cost = 0
                    }
                }
            }

            4731 = { #Kaisanthi
                kill_units = {
                    who = ROOT
                    type = infantry
                    amount = 3
                }
                if = {
                    limit = { has_trade_building_trigger = yes }
                    upgrade_building = { trade = yes } 
                }
                else = {
                    add_building_construction = {
                        building = marketplace
                        speed = 0.5
                        cost = 0
                    }
                }
            }

            4751 = { #Nirakvonkai
                kill_units = {
                    who = ROOT
                    type = infantry
                    amount = 3
                }
                if = {
                    limit = { has_trade_building_trigger = yes }
                    upgrade_building = { trade = yes } 
                }
                else = {
                    add_building_construction = {
                        building = marketplace
                        speed = 0.5
                        cost = 0
                    }
                }
            }
            custom_tooltip = Y72_eyes_over_trade_effect_tt
        }
    }

    Y72_untouched_hillsides = {
        icon = mission_che_the_cave_country
        required_missions = {
            Y72_unite_old_kingdom
            Y72_eyes_open_trade
        }
        position = 4

        provinces_to_highlight = {
            OR = {
                AND = {
                    OR = {
                        province_id = 4729
                        province_id = 4742
                        province_id = 4744
                        province_id = 4752
                        province_id = 4746
                        province_id = 4955
                        province_id = 4745
                        province_id = 4968
                        province_id = 4754
                    }
                    NOT = {
                        AND = {
                            has_production_building_trigger = yes
                            base_production = 5
                        }
                    }
                }
            }
        }

        trigger = {
            custom_trigger_tooltip = {
                tooltip = Y72_untouched_hillsides_trigger_tt
                4729 = { #Phaktaiden
                    base_production = 5
                    has_production_building_trigger = yes
                }
                4742 = { #Kangcau
                    base_production = 5
                    has_production_building_trigger = yes
                }
                4744 = { #Thitranac
                    base_production = 5
                    has_production_building_trigger = yes
                }
                4752 = { #Thalomxav
                    base_production = 5
                    has_production_building_trigger = yes
                }
                4746 = { #Hintantich
                    base_production = 5
                    has_production_building_trigger = yes
                }
                4955 = { #Keoaden
                    base_production = 5
                    has_production_building_trigger = yes
                }
                4745 = { #Ranaxarhe
                    base_production = 5
                    has_production_building_trigger = yes
                }
                4968 = { #Pashonghea
                    base_production = 5
                    has_production_building_trigger = yes
                }
                4754 = { #Xayfontad
                    base_production = 5
                    has_production_building_trigger = yes
                }
            }
		}

        effect = {
            custom_tooltip = Y72_untouched_hillsides_effect_tt
            hidden_effect = {
                country_event = { 
                    id = flavor_chien.13
                    days = 270
                }
            }
        }
    }

    Y72_precious_rocks = {
        icon = mission_establish_high_seas_navy
        required_missions = {
            Y72_untouched_hillsides
        }
        position = 5

        provinces_to_highlight = {
            province_id = 1369
        }

        trigger = {
            monthly_income = 100

            4955 = { #Keoaden
                province_has_center_of_trade_of_level = 3
            }

            1369 = { #Binhrung Coast, Yemakai Trade Node
	            trade_share = {
		            country = ROOT
		            share = 85
                }
            }
	    }

        effect = {
            country_event = { id = flavor_chien.11 }
            custom_tooltip = Y72_precious_rocks_effect_tt
        }
    }

    Y72_hold_within_mine = {
        icon = mission_dwarf
        required_missions = {
            Y72_mountain_kings_servants
            Y72_nrpd
        }
        position = 6

        provinces_to_highlight = {
            province_id = 5424
        }

        trigger = {
            5424 = { #Verkal Ozovar
				has_dwarven_hold_3 = yes
                country_or_non_sovereign_subject_holds = ROOT
            }
		}

        effect = {
            4955 = {
                remove_dwarven_minority_size_effect = yes
            }
            5424 = {
                change_religion = ROOT
                add_province_modifier = {
                    name = Y72_good_business
                    duration = -1
                }
            }
            custom_tooltip = Y72_hold_within_mine_effect_tt
            hidden_effect = {
                if = {
                    limit = {
                        Y63 = {
                            is_subject_of = ROOT
                        }
                    }
                    Y63 = { change_religion = ROOT }
                }
            }
        }
    }

    Y72_incorporate_ozovar_weapons = { #Unbreakble Steel now.  Blame the confusion to lack of space for mission titles
        icon = mission_industrial_forging
        required_missions = {
            Y72_hold_within_mine
        }
        position = 7

        provinces_to_highlight = {
            OR = {
                province_id = 5424
                AND = {
                    owned_by = ROOT
                    trade_goods = gems
                    NOT = { has_building = mills }
                }
            }
        }

        trigger = {
            5424 = { #Verkal Ozovar
				has_dwarven_hold_4 = yes
            }
            high_tolerance_dwarven_race_trigger = yes
            num_of_owned_provinces_with = {
                value = 4
                trade_goods = gems
                has_building = mills
            }
		}

        effect = {
            add_country_modifier = {
                name = Y72_reformed_lamellar_armor
                duration = -1
            }
        }
    }

    Y72_invulnerable_hearts = { #Name is Invulnerable Hearts now
        icon = mission_silblaidd
        required_missions = {
            Y72_incorporate_ozovar_weapons
        }
        position = 8

        trigger = {
            government_rank = 3
            army_tradition = 80
            army_professionalism = 0.80
		}

        effect = {
            add_country_modifier = {
                name = Y72_the_boldest
                duration = -1
            }
        }
    }

    Y72_new_interrogation = {
        icon = mission_captured
        required_missions = {
            Y72_sapphire_declaration
        }
        position = 9

        trigger = {
            absolutism = 40
            state_house = 10
		}

        effect = {
            add_country_modifier = {
                name = Y72_dishonorable_pertrification
                duration = 18250
            }
        }
    }

    Y72_heirs_thindikai = {
        icon = mission_approach_throne
        required_missions = {
            Y72_new_interrogation
        }
        position = 11

        trigger = {
            prestige = 90
            AND = {
                monthly_adm = 10
                monthly_dip = 10
                monthly_mil = 10
            }
            custom_trigger_tooltip = {
                tooltip = Y72_heirs_thindikai_trigger_tt
                has_country_flag = chien_spirit_queens_4
            }           
		}

        effect = {
            custom_tooltip = Y72_heirs_thindikai_effect_tt
            hidden_effect = { set_country_flag = Y72_thindikai_reward }
            yiguan_area = {
				limit = {
					NOT = { is_core = ROOT }
					NOT = { is_permanent_claim = ROOT }
				}
				add_permanent_claim = ROOT
			}
            jiantsiang_area = {
				limit = {
					NOT = { is_core = ROOT }
					NOT = { is_permanent_claim = ROOT }
				}
				add_permanent_claim = ROOT
			} 
        }
    }
}

chien_5 = { 
	slot = 5
	generic = no
	ai = yes 
	has_country_shield = yes
	potential = { 
        OR = { 
            tag = Y72 
            was_tag = Y72
        } 
    }

    Y72_coronation = {
        icon = mission_female_throne
        required_missions = {
            Y72_avenge_our_queen
        }
        position = 2

        trigger = {
            treasury = 250
            NOT = { unrest = 0 }
            NOT = { num_of_loans = 1 }
		}

        effect = {
            add_treasury = -250
            country_event = { id = flavor_chien.6 } #Coronation of the Anroang
        }
    }

    Y72_visit_temple = {
        icon = mission_sun_temple
        required_missions = {
            Y72_reopen_gem_caves
            Y72_coronation
        }
        position = 3

        trigger = {
            total_development = 200
            AND = {
                adm_power = 100
                dip_power = 100
                mil_power = 100
            }
		}

        effect = {
            add_adm_power = -100
            add_dip_power = -100
            add_mil_power = -100
            country_event = { id = flavor_chien.7 } #Where the Crystal Stares Back
            custom_tooltip = Y72_visit_temple_effect_tt
        }
    }

    Y72_meeting_with_knives = {
        icon = mission_shady_encounter
        required_missions = {
            Y72_visit_temple
        }
        position = 4

        trigger = { ##Originally had the idea of need your 4th NI unlocked to progress but its kinda a dumb timegate
            NOT = { war_exhaustion = 0.1 }
            NOT = { corruption = 0.1 }
		}

        effect = {
            country_event = { id = flavor_chien.8 } #A Restful Reign
        }
    }

    Y72_nrpd = {
        icon = mng_jing_hang_grand_canal
        required_missions = {
            Y72_untouched_hillsides
            Y72_meeting_with_knives
        }
        position = 5

        provinces_to_highlight = {
            OR = {
                AND = {
                    OR = {
                        province_id = 4729
                        province_id = 4747
                    }
                    NOT = {
                        AND = {
                            has_trade_building_trigger = yes
                            has_courthouse_building_trigger = yes
                        }
                    }
                }
            }
        }

        trigger = {
            mercantilism = 15
            4729 = { #Phaktaiden
                has_trade_building_trigger = yes
                has_courthouse_building_trigger = yes
            }
            4747 = { #Tawayemak
                has_trade_building_trigger = yes
                has_courthouse_building_trigger = yes
            }
		}

        effect = {
            4729 = { center_of_trade = 1 }
            hidden_effect = {
                if = {
                    limit = {
                        NOT = { ruler_has_personality = industrious_personality }
                        NOT = { num_of_ruler_traits = { amount = 3 } }
                    }
                    add_ruler_personality = industrious_personality
                }    
                else = {
                    add_treasury = 250
                    add_dip_power = 50
                }           
            }
            custom_tooltip = Y72_nrpd_effect_tt
        }
    }

    Y72_end_noble_merchant = {
        icon = mission_noble_council
        required_missions = {
            Y72_nrpd
        }
        position = 7

        trigger = {
            crown_land_share = 60
            if = {
				limit = { 
                    has_estate = estate_nobles 
                }
                estate_loyalty = {
                    estate = estate_nobles
                    loyalty = 65
                }
            }
            if = {
				limit = { 
                    has_estate = estate_burghers
                }
                estate_loyalty = {
                    estate = estate_burghers
                    loyalty = 65
                }
            }
            government_reform_progress = 100
		}

        effect = {
            change_government_reform_progress = -100
            hidden_effect = {
                add_country_modifier = {
                    name = Y72_no_stab_death
                    duration = -1
                }
            }     
            custom_tooltip = Y72_no_stab_loss_tt       
        }
    }

    Y72_sapphire_declaration = {
        icon = mission_the_sudebnik
        required_missions = {
            Y72_end_noble_merchant
        }
        position = 8

        trigger = {
            if = {
                limit = { has_estate = estate_nobles }
                NOT = {
                    estate_influence = { estate = estate_nobles influence = 40 }
                }
            }
            if = {
                limit = { has_estate = estate_burghers }
                NOT = {
                    estate_influence = { estate = estate_burghers influence = 40 }
                }
            }
            if = {
                limit = { has_estate = estate_church }
                NOT = {
                    estate_influence = { estate = estate_church influence = 40 }
                }
            }
            if = {
                limit = { has_estate = estate_adventurers }
                NOT = {
                    estate_influence = { estate = estate_adventurers influence = 40 }
                }
            }
            stability = 2
            reform_level = 3
		}

        effect = {
            Y72_upgrade_spirit_queens = yes
            add_government_reform = chien_ancestral_council_reform
        }
    }

    Y72_bejeweled_city = {
        icon = mission_magic_tower
        required_missions = {
            Y72_sapphire_declaration
        }
        position = 10

        provinces_to_highlight = {
            province_id = 4955
        }

        trigger = {
            4955 = {
                development = 40
                OR = {
                    has_building = trade_depot
                    has_building = stock_exchange
                }
                has_building = university
                has_building = mills
            }
		}

        effect = {
            4955 = {
                add_province_modifier = {
                    name = Y72_keoaden_crystals
                    duration = 36500
                }
            }
            country_event = { id = flavor_chien.9 }
        }
    }
}